{
  "name": "Tag",
  "fields": [
    {
      "fieldName": "label",
      "fieldType": "String",
      "fieldValidateRules": ["required", "minlength", "maxlength"],
      "fieldValidateRulesMinlength": "4",
      "fieldValidateRulesMaxlength": "40"
    }
  ],
  "relationships": [
    {
      "relationshipType": "many-to-many",
      "otherEntityName": "recipe",
      "otherEntityRelationshipName": "tag",
      "relationshipName": "recipe",
      "ownerSide": false
    }
  ],
  "entityTableName": "tag",
  "dto": "mapstruct",
  "pagination": "infinite-scroll",
  "service": "serviceClass",
  "jpaMetamodelFiltering": true,
  "fluentMethods": true,
  "readOnly": false,
  "embedded": false,
  "applications": ["mymenums", "mymenuweb"],
  "microserviceName": "mymenums",
  "clientRootFolder": "mymenums",
  "databaseType": "sql",
  "changelogDate": "20210401163039"
}
